<?xml version="1.0" encoding="utf-8"?>
<!-- Generator: Adobe Illustrator 23.0.1, SVG Export Plug-In . SVG Version: 6.00 Build 0)  -->
<svg version="1.1" xmlns="http://www.w3.org/2000/svg" xmlns:xlink="http://www.w3.org/1999/xlink" x="0px" y="0px"
	 viewBox="0 0 256.4 70.4" style="enable-background:new 0 0 256.4 70.4;" xml:space="preserve">
<style type="text/css">
	.st0{display:none;}
	.st1{fill-rule:evenodd;clip-rule:evenodd;fill:#231F20;}
	.st2{fill-rule:evenodd;clip-rule:evenodd;}
</style>
<g id="Layer_3" class="st0">
</g>
<g id="JTP_1_">
	<g>
		<g>
			<g>
				<path class="st1" d="M71.6,46.3c-0.6,0.2-0.5,1-0.7,1.4c-0.5,1.3-1.4,2.8-2.1,4.3c0.2,0.6-0.5,0.4-0.7,0.7
					c-0.2,0.2-0.3,0.7-0.5,1c-2.2,2.9-5,5.6-8.1,8.1c-0.4,0.3-0.8,0.5-1.2,1c-0.4,0.4-2.2,0.9-3.1,1.2c-0.5,0.2-1.1,0-1.7,0.2
					c-0.5,0.2-0.8,0.6-1.2,0.7c-0.4,0.2-1,0.3-1.4,0.5c-0.5,0.2-1,0.3-1.4,0.5c-0.5,0.2-1.1,0.1-1.7,0.2c-0.5,0.1-0.8,0.4-1.2,0.5
					c-0.8,0.1-1.9,0-2.1,0c-1,0.1-2.3,0.3-2.9-0.7c-0.4-1.7,1.1-1.8,1.9-2.1c2.1-0.9,4-0.8,6-1.7c0.3-0.1,0.5-0.4,0.7-0.5
					c0.2-0.1,0.5-0.1,0.7-0.2c0.3-0.2,0.2-0.6,0.5-0.7c0,0,0.3,0.1,0.5,0c0.6-0.3,1.2-0.7,1.9-1.2c0.8-0.5,2.1-1.4,3.1-2.1
					c0.8-0.6,1.2-1.7,2.4-1.7c1.3-1.9,3.4-2.9,3.8-5.7c0.9-0.1,1.1-1.1,1.4-1.7c0.4-0.6,1.2-1,1.2-1.9c0.1-1.1-0.6-1.3-1.2-1.7
					c0.6-3.3,1.5-6,1.9-9.8c0.3-3.2-0.1-6.4-1.2-9.5c-0.3-0.9-0.8-2-1.2-2.9c-0.1-0.1-0.4-0.2-0.5-0.2c-0.2-0.5-0.5-1.7-1-2.4
					c-0.8-1.4-2.3-2.3-2.6-3.8c-1.8-1.5-3.3-3.4-5.2-4.8c0.3-0.5,1.2,1.1,1.9,0.2c-1.3-2.6-3.3-1.9-4.5-3.3c-0.6-0.6-0.7-1.1-1-2.1
					c-0.7-0.7-1.5-1.3-2.6-1.7C48.1,4,47.9,3.3,47.4,3c-2.2-1.8-6.6-2-9.3-2.9c-1.3-0.2-2.5-0.2-4,0c-1.5,0.3-4,0.8-5.7,1.4
					c-1.3,0.3-1.1-0.8-2.1-0.7c-4.6,1.1-8,3.2-11.4,5.5c-0.6,0.3,0.3,0.9-0.2,1c-0.8,0.8-1.1,1.8-1.7,2.6c-0.5,0.7-1.3,1.6-1.7,2.1
					c-0.4,0.6-0.2,1-0.7,1.7c-0.3,0.5-0.6,0.2-1,0.7c-1,1.5-2.5,3.1-3.3,4.3C6,18.9,6.1,19.3,6,19.4c-0.3,0.4-0.7,0.6-1,1
					c-0.4,0.6-0.7,1.2-1,1.7c-0.6,1-1.1,2.4-1.7,3.8c-0.6,1.6-1.3,2.9-1.7,4.5c-0.3,1.4-0.4,4-0.7,5c0,1.3,0,2.5,0,3.8
					c0.6,1.5,0.4,3.2,0.7,4.8c0.2,0.7,0.6,1.4,1,2.1c0.1,0.3,0.1,0.9,0.2,1.2c0.2,0.4,0.5,0.6,0.7,1c0.7,1.5,1.2,3,1.9,4.3
					c0.8,1.4,2.1,2.8,2.9,3.8c0.1,0.2,0.1,0.5,0.2,0.7c0.5,0.7,1.3,1.2,1.9,1.9c0.9,0.9,1.7,1.9,2.4,2.4c0.2,0.1,0.3,0.4,0.5,0.5
					c0.3,0.2,0.9,0.3,1.2,0.5c0.1,0.1,0.1,0.4,0.2,0.5c0.2,0.1,0.5,0.1,0.7,0.2c1.1,0.7,2,1.3,3.1,1.9c1.5,0.8,3.3,1.6,4.8,2.1
					c0.3,0.1,0.6,0.4,1,0.5c1.3,0.5,2.7,0.8,4,1.2c0.1,0,0.6,0.4,0.7,0.5c2.6,0.6,5.9,0.6,8.1,1.2c1.5,0,3,0,4.5,0
					c2.2-0.3,4.1-0.3,5.5-1c0.2-0.1,0.3-0.4,0.5-0.5c0.3-0.1,0.7,0.1,1,0c0.9-0.4,1.5-1,2.4-1.2c1.2-0.2,2.5,0.2,3.8,0
					c0.7-0.1,1.7-0.7,2.6-1.2c0.8-0.4,1.7-1,2.4-1.4c0.3-0.2,0.6-0.7,1-1c0.2-0.1,0.5-0.1,0.7-0.2c0.1-0.1,0.3-0.4,0.5-0.5
					c0.9-0.6,1.7-1.1,2.4-1.7c1.2-1,2.1-2.3,3.3-2.9c0.2-1,1.1-1.7,1.7-2.6c0.3-0.4,0.4-0.9,0.7-1.4c0.2-0.4,0.8-1,1-1.4
					c0.2-0.6,0-1.5,0.2-2.4c0.3-1.3,1.8-2.9,1.4-4.5C71.7,46.6,71.7,46.3,71.6,46.3z M6.7,42.3c-0.5-1.2-0.4-2.6-0.5-3.8
					c0-0.5-0.1-0.7-0.1-1c0-0.5-0.1-2.2,0.4-3.2c0.8-1.8,0.2-3.3,1-4.9c0-0.3,0.7,0.2,1.1,0.3c-0.6,0.7-0.5,1.9-0.7,2.6
					c-0.2,0.8-0.3,1.6-0.4,2.4c-0.1,0.5,0.1,0.8,0.1,1.3c0,1.6-0.3,3.3-0.3,4.9c0,0.7,0.4,1.6-0.1,2.3C6.4,43.5,6.8,42.6,6.7,42.3z
					 M8.3,47.5C8,47,7.3,46,7.1,44.9c-0.1-0.6-0.3-1.2,0.2-1.4c0.2-0.3,0.5,0.7,0.5,0.7c-0.2,0.6,0.5,0.8,0.6,1.1
					c0.4,1,0.6,2.1,1,3.4C8.6,49,8.6,48,8.3,47.5z M8,29.1c-0.6-0.7,0.2-1.3,0.8-1.6c0.1-1.5,1.3-2,1.9-3.1c1,0.1-0.4,1.6-0.7,2.1
					C9.6,27.3,9.3,29.2,8,29.1z M16.8,58.8c-0.1-0.1-0.5-0.2-0.6-0.3c-0.1-0.1-0.1-0.6-0.2-0.7c-0.4-0.4-0.6-0.4-1-0.8
					c-0.4-0.4-0.8-0.8-1.2-1.2c-1.4-1.4-2.7-2.9-3.6-4.8c0.3,0,0.7-0.1,0.8,0.1c0.9,0.1,1.1,1.3,1.4,2c0.7,0.3,0.8,0.8,1.5,1.4
					c0.1,0.1,0.3,0,0.4,0.1c0.1,0.1,0.3,0.4,0.4,0.5c0.2,0.2,0.5,0.4,0.7,0.6c0.3,0.3,0.7,1,1.3,1.3c0.1,1.5,1.6,1.5,1.9,2.9
					C17.6,60,17.3,59.3,16.8,58.8z M35.7,45.8l-2-1.9l4.9-5.2l-2-1.9l-6.8,7.2l-2-1.9l6.8-7.2L33,33.4L24.8,42c0,0,0,0,0,0l-0.4,0.5
					l0,0c-2.7,2.3-6.7,2.3-9.3-0.2c-2.8-2.6-2.9-7-0.3-9.8c2.6-2.8,7-2.9,9.8-0.3c0,0,0,0,0.1,0.1l-1.9,2c0,0,0,0-0.1-0.1
					c-1.7-1.6-4.3-1.5-5.9,0.2c-1.6,1.7-1.5,4.3,0.2,5.9c1.5,1.5,3.9,1.5,5.5,0.2l0,0l0.1-0.1c0.1-0.1,0.2-0.2,0.3-0.3
					c0.1-0.1,0.2-0.2,0.3-0.4l3.5-3.7c0,0,0,0,0,0l7.5-7.9l2,1.9l-1.3,1.3l1.7,1.6l3-3.1l2,1.9l-3,3.1l2,1.9l4.9-5.2l0,0
					c2.7-2.3,6.7-2.3,9.3,0.2c2.8,2.6,2.9,7,0.3,9.8c-2.6,2.8-7,2.9-9.8,0.3c0,0,0,0-0.1-0.1l1.9-2c0,0,0,0,0.1,0.1
					c1.7,1.6,4.3,1.5,5.9-0.2c1.6-1.7,1.5-4.3-0.2-5.9c-1.5-1.5-3.9-1.5-5.5-0.2l0,0l-0.1,0.1c-0.1,0.1-0.2,0.2-0.3,0.3
					c-0.1,0.1-0.2,0.2-0.3,0.4L43.2,38c0,0,0,0,0,0L35.7,45.8z M121.7,49.3c0-2.1-1.2-3.2-3.1-3.2H115v9.3h1.8v-3h1.8
					C120.6,52.5,121.7,51.4,121.7,49.3z M119.9,49.3c0,1.2-0.5,1.5-1.4,1.5h-1.7v-3.1h1.7C119.4,47.8,119.9,48.2,119.9,49.3z
					 M131.2,55.5v-3.8h-3.4v3.8h-1.8v-9.3h1.8v4h3.4v-4h1.8v9.3H131.2z M144.8,50.4c0-2.9-1.1-4.3-3.7-4.3c-2.6,0-3.7,1.5-3.7,4.3
					v0.7c0,3.2,1.1,4.5,3.7,4.5c2.6,0,3.7-1.3,3.7-4.5V50.4z M143,51.1c0,1.5-0.2,2.9-1.9,2.9c-1.8,0-1.9-1.5-1.9-2.9v-0.5
					c0-1.6,0.2-2.9,1.9-2.9c1.7,0,1.9,1.3,1.9,2.9V51.1z M152.9,47.8v7.7h-1.8v-7.7h-2.5v-1.6h6.8v1.6H152.9z M166.6,50.4
					c0-2.9-1.1-4.3-3.7-4.3c-2.6,0-3.7,1.5-3.7,4.3v0.7c0,3.2,1.1,4.5,3.7,4.5c2.6,0,3.7-1.3,3.7-4.5V50.4z M164.8,51.1
					c0,1.5-0.2,2.9-1.9,2.9c-1.8,0-1.9-1.5-1.9-2.9v-0.5c0-1.6,0.2-2.9,1.9-2.9c1.7,0,1.9,1.3,1.9,2.9V51.1z M170.6,49.9
					c0-2.4,1.3-3.9,3.7-3.9c1.1,0,2,0.4,2.7,1c0.6,0.6,0.7,1.4,0.7,2.2H176c0-1.1-0.6-1.6-1.7-1.6c-1.7,0-1.7,1.5-1.7,3.1
					c0,1.6,0,3.1,1.9,3.1c0.7,0,1.3-0.2,1.6-1v-0.6H175v-1.5h2.7v2.8c-0.6,1.3-1.9,1.9-3.3,1.9c-2.7,0-3.8-1.5-3.8-4.5V49.9z
					 M189.4,55.5l-2.1-3.8c0.9-0.3,1.7-1.3,1.7-2.6c0-1.7-1.1-3-3-3h-1.5c-1.6,0-2.1,0.6-2.1,2v7.3h1.8V52h1.3l1.8,3.5H189.4z
					 M187.2,49.1c0,0.7-0.5,1.4-1.3,1.4h-1.7v-1.9c0-0.5,0.2-0.8,0.8-0.8h0.9C186.6,47.8,187.2,48.3,187.2,49.1z M201.2,55.5l-3-8.6
					c-0.2-0.7-0.5-0.8-1-0.8c-0.4,0-0.8,0.2-1,0.8l-3,8.6h1.9l0.5-1.6h3.1l0.5,1.6H201.2z M198.3,52.3h-2.3l1.2-3.7L198.3,52.3z
					 M212.1,49.3c0-2.1-1.2-3.2-3.1-3.2h-3.6v9.3h1.8v-3h1.8C210.9,52.5,212.1,51.4,212.1,49.3z M210.2,49.3c0,1.2-0.5,1.5-1.4,1.5
					h-1.7v-3.1h1.7C209.7,47.8,210.2,48.2,210.2,49.3z M221.5,55.5v-3.8h-3.4v3.8h-1.8v-9.3h1.8v4h3.4v-4h1.8v9.3H221.5z M232,51.7
					v3.8h-1.8v-3.8l-2.8-5.5h2l1.7,3.8l1.7-3.8h2L232,51.7z M99.5,27c0,5.3-2.4,6.8-6,6.8c-2.6,0-4.1-0.7-5.5-2.1l2-2.2
					c0.6,0.6,2,1,3.2,1c1.8,0,2.7-0.5,2.7-2.7V15h3.6V27z M110.7,33.7c-4.2,0-5.7-1.2-5.7-4.9V15h12.3v3.3h-8.7v4.4h6.1l-0.3,3.3
					h-5.8v2.6c0,1.5,0.6,1.9,2.3,1.9h6.4v3.3H110.7z M136.4,33.7l-4.2-7.5c1.8-0.7,3.4-2.5,3.4-5.2c0-3.4-2.3-6-6.1-6h-3.1
					c-3.1,0-4.2,1.3-4.2,4v14.7h3.6v-6.9h2.6l3.6,6.9H136.4z M132,20.9c0,1.4-1.1,2.7-2.7,2.7h-3.4v-3.8c0-0.9,0.5-1.7,1.6-1.7h1.8
					C130.9,18.2,132,19.2,132,20.9z M154.9,23.4c0-5.7-2.3-8.6-7.4-8.6c-5.2,0-7.4,2.9-7.4,8.6v1.4c0,6.4,2.2,9,7.4,9
					c5.2,0,7.4-2.7,7.4-9V23.4z M151.3,24.8c0,2.9-0.3,5.8-3.8,5.8c-3.5,0-3.8-2.9-3.8-5.8v-1c0-3.1,0.4-5.7,3.8-5.7
					c3.4,0,3.8,2.6,3.8,5.7V24.8z M170.5,29.6c-0.5,1-1.2,1.4-1.8,1.4c-0.7,0-1.3-0.5-1.8-1.5l-3.4-7v11.2h-3.6V15h3.6l5.3,10.8
					l5.2-10.8h3.6v18.7h-3.6V22.5L170.5,29.6z M188.8,33.7c-4.2,0-5.7-1.2-5.7-4.9V15h12.3v3.3h-8.7v4.4h6.1l-0.3,3.3h-5.8v2.6
					c0,1.5,0.6,1.9,2.3,1.9h6.4v3.3H188.8z M214.9,18.2v15.4h-3.6V18.2h-5V15h13.6v3.3H214.9z M230.6,33.8c-2.8,0-7.1-1.5-7.1-6.1
					l3.3-0.2c0,2,2.2,3,3.9,3c2.2,0,3.3-0.8,3.3-2.3c0-1.3-0.9-2-2.2-2.2l-3-0.3c-2.9-0.4-5-2-5-5.2c0-3.3,2.7-5.7,7-5.7
					c3.5,0,6.2,2.1,6.2,5.3l-3.3,0.2c-0.4-1.8-1.8-2.3-3.1-2.3c-2.2,0-3.4,1.1-3.4,2.4c0,1.2,1.1,1.9,2.3,2.1l3,0.3
					c3.1,0.4,5,2,5,5.4C237.5,31.8,234.5,33.8,230.6,33.8z M256.4,23.4c0-5.7-2.3-8.6-7.4-8.6c-5.2,0-7.4,2.9-7.4,8.6v1.4
					c0,6.4,2.2,9,7.4,9c5.2,0,7.4-2.7,7.4-9V23.4z M252.7,24.8c0,2.9-0.3,5.8-3.8,5.8c-3.5,0-3.8-2.9-3.8-5.8v-1
					c0-3.1,0.4-5.7,3.8-5.7c3.4,0,3.8,2.6,3.8,5.7V24.8z"/>
			</g>
			<g>
				<path class="st1" d="M71.6,46.3c-0.6,0.2-0.5,1-0.7,1.4c-0.5,1.3-1.4,2.8-2.1,4.3c0.2,0.6-0.5,0.4-0.7,0.7
					c-0.2,0.2-0.3,0.7-0.5,1c-2.2,2.9-5,5.6-8.1,8.1c-0.4,0.3-0.8,0.5-1.2,1c-0.4,0.4-2.2,0.9-3.1,1.2c-0.5,0.2-1.1,0-1.7,0.2
					c-0.5,0.2-0.8,0.6-1.2,0.7c-0.4,0.2-1,0.3-1.4,0.5c-0.5,0.2-1,0.3-1.4,0.5c-0.5,0.2-1.1,0.1-1.7,0.2c-0.5,0.1-0.8,0.4-1.2,0.5
					c-0.8,0.1-1.9,0-2.1,0c-1,0.1-2.3,0.3-2.9-0.7c-0.4-1.7,1.1-1.8,1.9-2.1c2.1-0.9,4-0.8,6-1.7c0.3-0.1,0.5-0.4,0.7-0.5
					c0.2-0.1,0.5-0.1,0.7-0.2c0.3-0.2,0.2-0.6,0.5-0.7c0,0,0.3,0.1,0.5,0c0.6-0.3,1.2-0.7,1.9-1.2c0.8-0.5,2.1-1.4,3.1-2.1
					c0.8-0.6,1.2-1.7,2.4-1.7c1.3-1.9,3.4-2.9,3.8-5.7c0.9-0.1,1.1-1.1,1.4-1.7c0.4-0.6,1.2-1,1.2-1.9c0.1-1.1-0.6-1.3-1.2-1.7
					c0.6-3.3,1.5-6,1.9-9.8c0.3-3.2-0.1-6.4-1.2-9.5c-0.3-0.9-0.8-2-1.2-2.9c-0.1-0.1-0.4-0.2-0.5-0.2c-0.2-0.5-0.5-1.7-1-2.4
					c-0.8-1.4-2.3-2.3-2.6-3.8c-1.8-1.5-3.3-3.4-5.2-4.8c0.3-0.5,1.2,1.1,1.9,0.2c-1.3-2.6-3.3-1.9-4.5-3.3c-0.6-0.6-0.7-1.1-1-2.1
					c-0.7-0.7-1.5-1.3-2.6-1.7C48.1,4,47.9,3.3,47.4,3c-2.2-1.8-6.6-2-9.3-2.9c-1.3-0.2-2.5-0.2-4,0c-1.5,0.3-4,0.8-5.7,1.4
					c-1.3,0.3-1.1-0.8-2.1-0.7c-4.6,1.1-8,3.2-11.4,5.5c-0.6,0.3,0.3,0.9-0.2,1c-0.8,0.8-1.1,1.8-1.7,2.6c-0.5,0.7-1.3,1.6-1.7,2.1
					c-0.4,0.6-0.2,1-0.7,1.7c-0.3,0.5-0.6,0.2-1,0.7c-1,1.5-2.5,3.1-3.3,4.3C6,18.9,6.1,19.3,6,19.4c-0.3,0.4-0.7,0.6-1,1
					c-0.4,0.6-0.7,1.2-1,1.7c-0.6,1-1.1,2.4-1.7,3.8c-0.6,1.6-1.3,2.9-1.7,4.5c-0.3,1.4-0.4,4-0.7,5c0,1.3,0,2.5,0,3.8
					c0.6,1.5,0.4,3.2,0.7,4.8c0.2,0.7,0.6,1.4,1,2.1c0.1,0.3,0.1,0.9,0.2,1.2c0.2,0.4,0.5,0.6,0.7,1c0.7,1.5,1.2,3,1.9,4.3
					c0.8,1.4,2.1,2.8,2.9,3.8c0.1,0.2,0.1,0.5,0.2,0.7c0.5,0.7,1.3,1.2,1.9,1.9c0.9,0.9,1.7,1.9,2.4,2.4c0.2,0.1,0.3,0.4,0.5,0.5
					c0.3,0.2,0.9,0.3,1.2,0.5c0.1,0.1,0.1,0.4,0.2,0.5c0.2,0.1,0.5,0.1,0.7,0.2c1.1,0.7,2,1.3,3.1,1.9c1.5,0.8,3.3,1.6,4.8,2.1
					c0.3,0.1,0.6,0.4,1,0.5c1.3,0.5,2.7,0.8,4,1.2c0.1,0,0.6,0.4,0.7,0.5c2.6,0.6,5.9,0.6,8.1,1.2c1.5,0,3,0,4.5,0
					c2.2-0.3,4.1-0.3,5.5-1c0.2-0.1,0.3-0.4,0.5-0.5c0.3-0.1,0.7,0.1,1,0c0.9-0.4,1.5-1,2.4-1.2c1.2-0.2,2.5,0.2,3.8,0
					c0.7-0.1,1.7-0.7,2.6-1.2c0.8-0.4,1.7-1,2.4-1.4c0.3-0.2,0.6-0.7,1-1c0.2-0.1,0.5-0.1,0.7-0.2c0.1-0.1,0.3-0.4,0.5-0.5
					c0.9-0.6,1.7-1.1,2.4-1.7c1.2-1,2.1-2.3,3.3-2.9c0.2-1,1.1-1.7,1.7-2.6c0.3-0.4,0.4-0.9,0.7-1.4c0.2-0.4,0.8-1,1-1.4
					c0.2-0.6,0-1.5,0.2-2.4c0.3-1.3,1.8-2.9,1.4-4.5C71.7,46.6,71.7,46.3,71.6,46.3z M6.7,42.3c-0.5-1.2-0.4-2.6-0.5-3.8
					c0-0.5-0.1-0.7-0.1-1c0-0.5-0.1-2.2,0.4-3.2c0.8-1.8,0.2-3.3,1-4.9c0-0.3,0.7,0.2,1.1,0.3c-0.6,0.7-0.5,1.9-0.7,2.6
					c-0.2,0.8-0.3,1.6-0.4,2.4c-0.1,0.5,0.1,0.8,0.1,1.3c0,1.6-0.3,3.3-0.3,4.9c0,0.7,0.4,1.6-0.1,2.3C6.4,43.5,6.8,42.6,6.7,42.3z
					 M8.3,47.5C8,47,7.3,46,7.1,44.9c-0.1-0.6-0.3-1.2,0.2-1.4c0.2-0.3,0.5,0.7,0.5,0.7c-0.2,0.6,0.5,0.8,0.6,1.1
					c0.4,1,0.6,2.1,1,3.4C8.6,49,8.6,48,8.3,47.5z M8,29.1c-0.6-0.7,0.2-1.3,0.8-1.6c0.1-1.5,1.3-2,1.9-3.1c1,0.1-0.4,1.6-0.7,2.1
					C9.6,27.3,9.3,29.2,8,29.1z M16.8,58.8c-0.1-0.1-0.5-0.2-0.6-0.3c-0.1-0.1-0.1-0.6-0.2-0.7c-0.4-0.4-0.6-0.4-1-0.8
					c-0.4-0.4-0.8-0.8-1.2-1.2c-1.4-1.4-2.7-2.9-3.6-4.8c0.3,0,0.7-0.1,0.8,0.1c0.9,0.1,1.1,1.3,1.4,2c0.7,0.3,0.8,0.8,1.5,1.4
					c0.1,0.1,0.3,0,0.4,0.1c0.1,0.1,0.3,0.4,0.4,0.5c0.2,0.2,0.5,0.4,0.7,0.6c0.3,0.3,0.7,1,1.3,1.3c0.1,1.5,1.6,1.5,1.9,2.9
					C17.6,60,17.3,59.3,16.8,58.8z M35.7,45.8l-2-1.9l4.9-5.2l-2-1.9l-6.8,7.2l-2-1.9l6.8-7.2L33,33.4L24.8,42c0,0,0,0,0,0l-0.4,0.5
					l0,0c-2.7,2.3-6.7,2.3-9.3-0.2c-2.8-2.6-2.9-7-0.3-9.8c2.6-2.8,7-2.9,9.8-0.3c0,0,0,0,0.1,0.1l-1.9,2c0,0,0,0-0.1-0.1
					c-1.7-1.6-4.3-1.5-5.9,0.2c-1.6,1.7-1.5,4.3,0.2,5.9c1.5,1.5,3.9,1.5,5.5,0.2l0,0l0.1-0.1c0.1-0.1,0.2-0.2,0.3-0.3
					c0.1-0.1,0.2-0.2,0.3-0.4l3.5-3.7c0,0,0,0,0,0l7.5-7.9l2,1.9l-1.3,1.3l1.7,1.6l3-3.1l2,1.9l-3,3.1l2,1.9l4.9-5.2l0,0
					c2.7-2.3,6.7-2.3,9.3,0.2c2.8,2.6,2.9,7,0.3,9.8c-2.6,2.8-7,2.9-9.8,0.3c0,0,0,0-0.1-0.1l1.9-2c0,0,0,0,0.1,0.1
					c1.7,1.6,4.3,1.5,5.9-0.2c1.6-1.7,1.5-4.3-0.2-5.9c-1.5-1.5-3.9-1.5-5.5-0.2l0,0l-0.1,0.1c-0.1,0.1-0.2,0.2-0.3,0.3
					c-0.1,0.1-0.2,0.2-0.3,0.4L43.2,38c0,0,0,0,0,0L35.7,45.8z M121.7,49.3c0-2.1-1.2-3.2-3.1-3.2H115v9.3h1.8v-3h1.8
					C120.6,52.5,121.7,51.4,121.7,49.3z M119.9,49.3c0,1.2-0.5,1.5-1.4,1.5h-1.7v-3.1h1.7C119.4,47.8,119.9,48.2,119.9,49.3z
					 M131.2,55.5v-3.8h-3.4v3.8h-1.8v-9.3h1.8v4h3.4v-4h1.8v9.3H131.2z M144.8,50.4c0-2.9-1.1-4.3-3.7-4.3c-2.6,0-3.7,1.5-3.7,4.3
					v0.7c0,3.2,1.1,4.5,3.7,4.5c2.6,0,3.7-1.3,3.7-4.5V50.4z M143,51.1c0,1.5-0.2,2.9-1.9,2.9c-1.8,0-1.9-1.5-1.9-2.9v-0.5
					c0-1.6,0.2-2.9,1.9-2.9c1.7,0,1.9,1.3,1.9,2.9V51.1z M152.9,47.8v7.7h-1.8v-7.7h-2.5v-1.6h6.8v1.6H152.9z M166.6,50.4
					c0-2.9-1.1-4.3-3.7-4.3c-2.6,0-3.7,1.5-3.7,4.3v0.7c0,3.2,1.1,4.5,3.7,4.5c2.6,0,3.7-1.3,3.7-4.5V50.4z M164.8,51.1
					c0,1.5-0.2,2.9-1.9,2.9c-1.8,0-1.9-1.5-1.9-2.9v-0.5c0-1.6,0.2-2.9,1.9-2.9c1.7,0,1.9,1.3,1.9,2.9V51.1z M170.6,49.9
					c0-2.4,1.3-3.9,3.7-3.9c1.1,0,2,0.4,2.7,1c0.6,0.6,0.7,1.4,0.7,2.2H176c0-1.1-0.6-1.6-1.7-1.6c-1.7,0-1.7,1.5-1.7,3.1
					c0,1.6,0,3.1,1.9,3.1c0.7,0,1.3-0.2,1.6-1v-0.6H175v-1.5h2.7v2.8c-0.6,1.3-1.9,1.9-3.3,1.9c-2.7,0-3.8-1.5-3.8-4.5V49.9z
					 M189.4,55.5l-2.1-3.8c0.9-0.3,1.7-1.3,1.7-2.6c0-1.7-1.1-3-3-3h-1.5c-1.6,0-2.1,0.6-2.1,2v7.3h1.8V52h1.3l1.8,3.5H189.4z
					 M187.2,49.1c0,0.7-0.5,1.4-1.3,1.4h-1.7v-1.9c0-0.5,0.2-0.8,0.8-0.8h0.9C186.6,47.8,187.2,48.3,187.2,49.1z M201.2,55.5l-3-8.6
					c-0.2-0.7-0.5-0.8-1-0.8c-0.4,0-0.8,0.2-1,0.8l-3,8.6h1.9l0.5-1.6h3.1l0.5,1.6H201.2z M198.3,52.3h-2.3l1.2-3.7L198.3,52.3z
					 M212.1,49.3c0-2.1-1.2-3.2-3.1-3.2h-3.6v9.3h1.8v-3h1.8C210.9,52.5,212.1,51.4,212.1,49.3z M210.2,49.3c0,1.2-0.5,1.5-1.4,1.5
					h-1.7v-3.1h1.7C209.7,47.8,210.2,48.2,210.2,49.3z M221.5,55.5v-3.8h-3.4v3.8h-1.8v-9.3h1.8v4h3.4v-4h1.8v9.3H221.5z M232,51.7
					v3.8h-1.8v-3.8l-2.8-5.5h2l1.7,3.8l1.7-3.8h2L232,51.7z M99.5,27c0,5.3-2.4,6.8-6,6.8c-2.6,0-4.1-0.7-5.5-2.1l2-2.2
					c0.6,0.6,2,1,3.2,1c1.8,0,2.7-0.5,2.7-2.7V15h3.6V27z M110.7,33.7c-4.2,0-5.7-1.2-5.7-4.9V15h12.3v3.3h-8.7v4.4h6.1l-0.3,3.3
					h-5.8v2.6c0,1.5,0.6,1.9,2.3,1.9h6.4v3.3H110.7z M136.4,33.7l-4.2-7.5c1.8-0.7,3.4-2.5,3.4-5.2c0-3.4-2.3-6-6.1-6h-3.1
					c-3.1,0-4.2,1.3-4.2,4v14.7h3.6v-6.9h2.6l3.6,6.9H136.4z M132,20.9c0,1.4-1.1,2.7-2.7,2.7h-3.4v-3.8c0-0.9,0.5-1.7,1.6-1.7h1.8
					C130.9,18.2,132,19.2,132,20.9z M154.9,23.4c0-5.7-2.3-8.6-7.4-8.6c-5.2,0-7.4,2.9-7.4,8.6v1.4c0,6.4,2.2,9,7.4,9
					c5.2,0,7.4-2.7,7.4-9V23.4z M151.3,24.8c0,2.9-0.3,5.8-3.8,5.8c-3.5,0-3.8-2.9-3.8-5.8v-1c0-3.1,0.4-5.7,3.8-5.7
					c3.4,0,3.8,2.6,3.8,5.7V24.8z M170.5,29.6c-0.5,1-1.2,1.4-1.8,1.4c-0.7,0-1.3-0.5-1.8-1.5l-3.4-7v11.2h-3.6V15h3.6l5.3,10.8
					l5.2-10.8h3.6v18.7h-3.6V22.5L170.5,29.6z M188.8,33.7c-4.2,0-5.7-1.2-5.7-4.9V15h12.3v3.3h-8.7v4.4h6.1l-0.3,3.3h-5.8v2.6
					c0,1.5,0.6,1.9,2.3,1.9h6.4v3.3H188.8z M214.9,18.2v15.4h-3.6V18.2h-5V15h13.6v3.3H214.9z M230.6,33.8c-2.8,0-7.1-1.5-7.1-6.1
					l3.3-0.2c0,2,2.2,3,3.9,3c2.2,0,3.3-0.8,3.3-2.3c0-1.3-0.9-2-2.2-2.2l-3-0.3c-2.9-0.4-5-2-5-5.2c0-3.3,2.7-5.7,7-5.7
					c3.5,0,6.2,2.1,6.2,5.3l-3.3,0.2c-0.4-1.8-1.8-2.3-3.1-2.3c-2.2,0-3.4,1.1-3.4,2.4c0,1.2,1.1,1.9,2.3,2.1l3,0.3
					c3.1,0.4,5,2,5,5.4C237.5,31.8,234.5,33.8,230.6,33.8z M256.4,23.4c0-5.7-2.3-8.6-7.4-8.6c-5.2,0-7.4,2.9-7.4,8.6v1.4
					c0,6.4,2.2,9,7.4,9c5.2,0,7.4-2.7,7.4-9V23.4z M252.7,24.8c0,2.9-0.3,5.8-3.8,5.8c-3.5,0-3.8-2.9-3.8-5.8v-1
					c0-3.1,0.4-5.7,3.8-5.7c3.4,0,3.8,2.6,3.8,5.7V24.8z"/>
			</g>
		</g>
	</g>
	<g>
		<g>
			<g>
				<path class="st2" d="M71.6,46.3c-0.6,0.2-0.5,1-0.7,1.4c-0.5,1.3-1.4,2.8-2.1,4.3c0.2,0.6-0.5,0.4-0.7,0.7
					c-0.2,0.2-0.3,0.7-0.5,1c-2.2,2.9-5,5.6-8.1,8.1c-0.4,0.3-0.8,0.5-1.2,1c-0.4,0.4-2.2,0.9-3.1,1.2c-0.5,0.2-1.1,0-1.7,0.2
					c-0.5,0.2-0.8,0.6-1.2,0.7c-0.4,0.2-1,0.3-1.4,0.5c-0.5,0.2-1,0.3-1.4,0.5c-0.5,0.2-1.1,0.1-1.7,0.2c-0.5,0.1-0.8,0.4-1.2,0.5
					c-0.8,0.1-1.9,0-2.1,0c-1,0.1-2.3,0.3-2.9-0.7c-0.4-1.7,1.1-1.8,1.9-2.1c2.1-0.9,4-0.8,6-1.7c0.3-0.1,0.5-0.4,0.7-0.5
					c0.2-0.1,0.5-0.1,0.7-0.2c0.3-0.2,0.2-0.6,0.5-0.7c0,0,0.3,0.1,0.5,0c0.6-0.3,1.2-0.7,1.9-1.2c0.8-0.5,2.1-1.4,3.1-2.1
					c0.8-0.6,1.2-1.7,2.4-1.7c1.3-1.9,3.4-2.9,3.8-5.7c0.9-0.1,1.1-1.1,1.4-1.7c0.4-0.6,1.2-1,1.2-1.9c0.1-1.1-0.6-1.3-1.2-1.7
					c0.6-3.3,1.5-6,1.9-9.8c0.3-3.2-0.1-6.4-1.2-9.5c-0.3-0.9-0.8-2-1.2-2.9c-0.1-0.1-0.4-0.2-0.5-0.2c-0.2-0.5-0.5-1.7-1-2.4
					c-0.8-1.4-2.3-2.3-2.6-3.8c-1.8-1.5-3.3-3.4-5.2-4.8c0.3-0.5,1.2,1.1,1.9,0.2c-1.3-2.6-3.3-1.9-4.5-3.3c-0.6-0.6-0.7-1.1-1-2.1
					c-0.7-0.7-1.5-1.3-2.6-1.7C48.1,4,47.9,3.3,47.4,3c-2.2-1.8-6.6-2-9.3-2.9c-1.3-0.2-2.5-0.2-4,0c-1.5,0.3-4,0.8-5.7,1.4
					c-1.3,0.3-1.1-0.8-2.1-0.7c-4.6,1.1-8,3.2-11.4,5.5c-0.6,0.3,0.3,0.9-0.2,1c-0.8,0.8-1.1,1.8-1.7,2.6c-0.5,0.7-1.3,1.6-1.7,2.1
					c-0.4,0.6-0.2,1-0.7,1.7c-0.3,0.5-0.6,0.2-1,0.7c-1,1.5-2.5,3.1-3.3,4.3C6,18.9,6.1,19.3,6,19.4c-0.3,0.4-0.7,0.6-1,1
					c-0.4,0.6-0.7,1.2-1,1.7c-0.6,1-1.1,2.4-1.7,3.8c-0.6,1.6-1.3,2.9-1.7,4.5c-0.3,1.4-0.4,4-0.7,5c0,1.3,0,2.5,0,3.8
					c0.6,1.5,0.4,3.2,0.7,4.8c0.2,0.7,0.6,1.4,1,2.1c0.1,0.3,0.1,0.9,0.2,1.2c0.2,0.4,0.5,0.6,0.7,1c0.7,1.5,1.2,3,1.9,4.3
					c0.8,1.4,2.1,2.8,2.9,3.8c0.1,0.2,0.1,0.5,0.2,0.7c0.5,0.7,1.3,1.2,1.9,1.9c0.9,0.9,1.7,1.9,2.4,2.4c0.2,0.1,0.3,0.4,0.5,0.5
					c0.3,0.2,0.9,0.3,1.2,0.5c0.1,0.1,0.1,0.4,0.2,0.5c0.2,0.1,0.5,0.1,0.7,0.2c1.1,0.7,2,1.3,3.1,1.9c1.5,0.8,3.3,1.6,4.8,2.1
					c0.3,0.1,0.6,0.4,1,0.5c1.3,0.5,2.7,0.8,4,1.2c0.1,0,0.6,0.4,0.7,0.5c2.6,0.6,5.9,0.6,8.1,1.2c1.5,0,3,0,4.5,0
					c2.2-0.3,4.1-0.3,5.5-1c0.2-0.1,0.3-0.4,0.5-0.5c0.3-0.1,0.7,0.1,1,0c0.9-0.4,1.5-1,2.4-1.2c1.2-0.2,2.5,0.2,3.8,0
					c0.7-0.1,1.7-0.7,2.6-1.2c0.8-0.4,1.7-1,2.4-1.4c0.3-0.2,0.6-0.7,1-1c0.2-0.1,0.5-0.1,0.7-0.2c0.1-0.1,0.3-0.4,0.5-0.5
					c0.9-0.6,1.7-1.1,2.4-1.7c1.2-1,2.1-2.3,3.3-2.9c0.2-1,1.1-1.7,1.7-2.6c0.3-0.4,0.4-0.9,0.7-1.4c0.2-0.4,0.8-1,1-1.4
					c0.2-0.6,0-1.5,0.2-2.4c0.3-1.3,1.8-2.9,1.4-4.5C71.7,46.6,71.7,46.3,71.6,46.3z M6.7,42.3c-0.5-1.2-0.4-2.6-0.5-3.8
					c0-0.5-0.1-0.7-0.1-1c0-0.5-0.1-2.2,0.4-3.2c0.8-1.8,0.2-3.3,1-4.9c0-0.3,0.7,0.2,1.1,0.3c-0.6,0.7-0.5,1.9-0.7,2.6
					c-0.2,0.8-0.3,1.6-0.4,2.4c-0.1,0.5,0.1,0.8,0.1,1.3c0,1.6-0.3,3.3-0.3,4.9c0,0.7,0.4,1.6-0.1,2.3C6.4,43.5,6.8,42.6,6.7,42.3z
					 M8.3,47.5C8,47,7.3,46,7.1,44.9c-0.1-0.6-0.3-1.2,0.2-1.4c0.2-0.3,0.5,0.7,0.5,0.7c-0.2,0.6,0.5,0.8,0.6,1.1
					c0.4,1,0.6,2.1,1,3.4C8.6,49,8.6,48,8.3,47.5z M8,29.1c-0.6-0.7,0.2-1.3,0.8-1.6c0.1-1.5,1.3-2,1.9-3.1c1,0.1-0.4,1.6-0.7,2.1
					C9.6,27.3,9.3,29.2,8,29.1z M16.8,58.8c-0.1-0.1-0.5-0.2-0.6-0.3c-0.1-0.1-0.1-0.6-0.2-0.7c-0.4-0.4-0.6-0.4-1-0.8
					c-0.4-0.4-0.8-0.8-1.2-1.2c-1.4-1.4-2.7-2.9-3.6-4.8c0.3,0,0.7-0.1,0.8,0.1c0.9,0.1,1.1,1.3,1.4,2c0.7,0.3,0.8,0.8,1.5,1.4
					c0.1,0.1,0.3,0,0.4,0.1c0.1,0.1,0.3,0.4,0.4,0.5c0.2,0.2,0.5,0.4,0.7,0.6c0.3,0.3,0.7,1,1.3,1.3c0.1,1.5,1.6,1.5,1.9,2.9
					C17.6,60,17.3,59.3,16.8,58.8z M35.7,45.8l-2-1.9l4.9-5.2l-2-1.9l-6.8,7.2l-2-1.9l6.8-7.2L33,33.4L24.8,42c0,0,0,0,0,0l-0.4,0.5
					l0,0c-2.7,2.3-6.7,2.3-9.3-0.2c-2.8-2.6-2.9-7-0.3-9.8c2.6-2.8,7-2.9,9.8-0.3c0,0,0,0,0.1,0.1l-1.9,2c0,0,0,0-0.1-0.1
					c-1.7-1.6-4.3-1.5-5.9,0.2c-1.6,1.7-1.5,4.3,0.2,5.9c1.5,1.5,3.9,1.5,5.5,0.2l0,0l0.1-0.1c0.1-0.1,0.2-0.2,0.3-0.3
					c0.1-0.1,0.2-0.2,0.3-0.4l3.5-3.7c0,0,0,0,0,0l7.5-7.9l2,1.9l-1.3,1.3l1.7,1.6l3-3.1l2,1.9l-3,3.1l2,1.9l4.9-5.2l0,0
					c2.7-2.3,6.7-2.3,9.3,0.2c2.8,2.6,2.9,7,0.3,9.8c-2.6,2.8-7,2.9-9.8,0.3c0,0,0,0-0.1-0.1l1.9-2c0,0,0,0,0.1,0.1
					c1.7,1.6,4.3,1.5,5.9-0.2c1.6-1.7,1.5-4.3-0.2-5.9c-1.5-1.5-3.9-1.5-5.5-0.2l0,0l-0.1,0.1c-0.1,0.1-0.2,0.2-0.3,0.3
					c-0.1,0.1-0.2,0.2-0.3,0.4L43.2,38c0,0,0,0,0,0L35.7,45.8z M121.7,49.3c0-2.1-1.2-3.2-3.1-3.2H115v9.3h1.8v-3h1.8
					C120.6,52.5,121.7,51.4,121.7,49.3z M119.9,49.3c0,1.2-0.5,1.5-1.4,1.5h-1.7v-3.1h1.7C119.4,47.8,119.9,48.2,119.9,49.3z
					 M131.2,55.5v-3.8h-3.4v3.8h-1.8v-9.3h1.8v4h3.4v-4h1.8v9.3H131.2z M144.8,50.4c0-2.9-1.1-4.3-3.7-4.3c-2.6,0-3.7,1.5-3.7,4.3
					v0.7c0,3.2,1.1,4.5,3.7,4.5c2.6,0,3.7-1.3,3.7-4.5V50.4z M143,51.1c0,1.5-0.2,2.9-1.9,2.9c-1.8,0-1.9-1.5-1.9-2.9v-0.5
					c0-1.6,0.2-2.9,1.9-2.9c1.7,0,1.9,1.3,1.9,2.9V51.1z M152.9,47.8v7.7h-1.8v-7.7h-2.5v-1.6h6.8v1.6H152.9z M166.6,50.4
					c0-2.9-1.1-4.3-3.7-4.3c-2.6,0-3.7,1.5-3.7,4.3v0.7c0,3.2,1.1,4.5,3.7,4.5c2.6,0,3.7-1.3,3.7-4.5V50.4z M164.8,51.1
					c0,1.5-0.2,2.9-1.9,2.9c-1.8,0-1.9-1.5-1.9-2.9v-0.5c0-1.6,0.2-2.9,1.9-2.9c1.7,0,1.9,1.3,1.9,2.9V51.1z M170.6,49.9
					c0-2.4,1.3-3.9,3.7-3.9c1.1,0,2,0.4,2.7,1c0.6,0.6,0.7,1.4,0.7,2.2H176c0-1.1-0.6-1.6-1.7-1.6c-1.7,0-1.7,1.5-1.7,3.1
					c0,1.6,0,3.1,1.9,3.1c0.7,0,1.3-0.2,1.6-1v-0.6H175v-1.5h2.7v2.8c-0.6,1.3-1.9,1.9-3.3,1.9c-2.7,0-3.8-1.5-3.8-4.5V49.9z
					 M189.4,55.5l-2.1-3.8c0.9-0.3,1.7-1.3,1.7-2.6c0-1.7-1.1-3-3-3h-1.5c-1.6,0-2.1,0.6-2.1,2v7.3h1.8V52h1.3l1.8,3.5H189.4z
					 M187.2,49.1c0,0.7-0.5,1.4-1.3,1.4h-1.7v-1.9c0-0.5,0.2-0.8,0.8-0.8h0.9C186.6,47.8,187.2,48.3,187.2,49.1z M201.2,55.5l-3-8.6
					c-0.2-0.7-0.5-0.8-1-0.8c-0.4,0-0.8,0.2-1,0.8l-3,8.6h1.9l0.5-1.6h3.1l0.5,1.6H201.2z M198.3,52.3h-2.3l1.2-3.7L198.3,52.3z
					 M212.1,49.3c0-2.1-1.2-3.2-3.1-3.2h-3.6v9.3h1.8v-3h1.8C210.9,52.5,212.1,51.4,212.1,49.3z M210.2,49.3c0,1.2-0.5,1.5-1.4,1.5
					h-1.7v-3.1h1.7C209.7,47.8,210.2,48.2,210.2,49.3z M221.5,55.5v-3.8h-3.4v3.8h-1.8v-9.3h1.8v4h3.4v-4h1.8v9.3H221.5z M232,51.7
					v3.8h-1.8v-3.8l-2.8-5.5h2l1.7,3.8l1.7-3.8h2L232,51.7z M99.5,27c0,5.3-2.4,6.8-6,6.8c-2.6,0-4.1-0.7-5.5-2.1l2-2.2
					c0.6,0.6,2,1,3.2,1c1.8,0,2.7-0.5,2.7-2.7V15h3.6V27z M110.7,33.7c-4.2,0-5.7-1.2-5.7-4.9V15h12.3v3.3h-8.7v4.4h6.1l-0.3,3.3
					h-5.8v2.6c0,1.5,0.6,1.9,2.3,1.9h6.4v3.3H110.7z M136.4,33.7l-4.2-7.5c1.8-0.7,3.4-2.5,3.4-5.2c0-3.4-2.3-6-6.1-6h-3.1
					c-3.1,0-4.2,1.3-4.2,4v14.7h3.6v-6.9h2.6l3.6,6.9H136.4z M132,20.9c0,1.4-1.1,2.7-2.7,2.7h-3.4v-3.8c0-0.9,0.5-1.7,1.6-1.7h1.8
					C130.9,18.2,132,19.2,132,20.9z M154.9,23.4c0-5.7-2.3-8.6-7.4-8.6c-5.2,0-7.4,2.9-7.4,8.6v1.4c0,6.4,2.2,9,7.4,9
					c5.2,0,7.4-2.7,7.4-9V23.4z M151.3,24.8c0,2.9-0.3,5.8-3.8,5.8c-3.5,0-3.8-2.9-3.8-5.8v-1c0-3.1,0.4-5.7,3.8-5.7
					c3.4,0,3.8,2.6,3.8,5.7V24.8z M170.5,29.6c-0.5,1-1.2,1.4-1.8,1.4c-0.7,0-1.3-0.5-1.8-1.5l-3.4-7v11.2h-3.6V15h3.6l5.3,10.8
					l5.2-10.8h3.6v18.7h-3.6V22.5L170.5,29.6z M188.8,33.7c-4.2,0-5.7-1.2-5.7-4.9V15h12.3v3.3h-8.7v4.4h6.1l-0.3,3.3h-5.8v2.6
					c0,1.5,0.6,1.9,2.3,1.9h6.4v3.3H188.8z M214.9,18.2v15.4h-3.6V18.2h-5V15h13.6v3.3H214.9z M230.6,33.8c-2.8,0-7.1-1.5-7.1-6.1
					l3.3-0.2c0,2,2.2,3,3.9,3c2.2,0,3.3-0.8,3.3-2.3c0-1.3-0.9-2-2.2-2.2l-3-0.3c-2.9-0.4-5-2-5-5.2c0-3.3,2.7-5.7,7-5.7
					c3.5,0,6.2,2.1,6.2,5.3l-3.3,0.2c-0.4-1.8-1.8-2.3-3.1-2.3c-2.2,0-3.4,1.1-3.4,2.4c0,1.2,1.1,1.9,2.3,2.1l3,0.3
					c3.1,0.4,5,2,5,5.4C237.5,31.8,234.5,33.8,230.6,33.8z M256.4,23.4c0-5.7-2.3-8.6-7.4-8.6c-5.2,0-7.4,2.9-7.4,8.6v1.4
					c0,6.4,2.2,9,7.4,9c5.2,0,7.4-2.7,7.4-9V23.4z M252.7,24.8c0,2.9-0.3,5.8-3.8,5.8c-3.5,0-3.8-2.9-3.8-5.8v-1
					c0-3.1,0.4-5.7,3.8-5.7c3.4,0,3.8,2.6,3.8,5.7V24.8z"/>
			</g>
		</g>
	</g>
</g>
</svg>
